{
  "$schema": "https://developer.microsoft.com/json-schemas/spfx-build/config.2.0.schema.json",
  "version": "2.0",
  "bundles": {
    "upcoming-events-web-part": {
      "components": [
        {
          "entrypoint": "./lib/webparts/upcomingEvents/UpcomingEventsWebPart.js",
          "manifest": "./src/webparts/upcomingEvents/UpcomingEventsWebPart.manifest.json"
        }
      ]
    }
  },
  "externals": {},
  "localizedResources": {
    "UpcomingEventsWebPartStrings": "lib/webparts/upcomingEvents/loc/{locale}.js"
  }
}
